riscv_cpu.vcd
$date
	Fri Mar 27 22:10:13 2026
$end
$version
	Icarus Verilog
$end
$timescale
	1s
$end
$scope module tb_riscv_cpu $end
$var wire 1 ! data_gnt $end
$var wire 64 " data_rdata [63:0] $end
$var wire 1 # debug_halt $end
$var wire 1 $ debug_resume $end
$var wire 32 % instr_data [31:0] $end
$var wire 1 & instr_gnt $end
$var wire 1 ' instr_req $end
$var wire 64 ( instr_addr [63:0] $end
$var wire 1 ) data_we $end
$var wire 64 * data_wdata [63:0] $end
$var wire 1 + data_req $end
$var wire 8 , data_be [7:0] $end
$var wire 64 - data_addr [63:0] $end
$var reg 1 . clk $end
$var reg 1 / irq_external $end
$var reg 1 0 irq_software $end
$var reg 1 1 irq_timer $end
$var reg 1 2 rst_n $end
$scope module u_dut $end
$var wire 1 . clk $end
$var wire 1 ! data_gnt $end
$var wire 64 3 data_rdata [63:0] $end
$var wire 1 + data_req $end
$var wire 1 # debug_halt $end
$var wire 1 4 debug_req $end
$var wire 1 $ debug_resume $end
$var wire 64 5 forward_ex_data [63:0] $end
$var wire 64 6 forward_mem_data [63:0] $end
$var wire 64 7 forward_wb_data [63:0] $end
$var wire 32 8 instr_data [31:0] $end
$var wire 1 & instr_gnt $end
$var wire 1 ' instr_req $end
$var wire 1 / irq_external $end
$var wire 1 0 irq_software $end
$var wire 1 1 irq_timer $end
$var wire 1 9 predict_taken $end
$var wire 64 : predict_target [63:0] $end
$var wire 5 ; rd_addr_wb [4:0] $end
$var wire 1 < reg_write_en_wb $end
$var wire 1 2 rst_n $end
$var wire 2 = wb_sel [1:0] $end
$var wire 64 > wb_result [63:0] $end
$var wire 1 ? valid_mem $end
$var wire 1 @ valid_if $end
$var wire 1 A valid_id $end
$var wire 1 B valid_ex $end
$var wire 1 C stall_if $end
$var wire 1 D stall_id $end
$var wire 64 E rs2_data_id [63:0] $end
$var wire 5 F rs2_addr_id [4:0] $end
$var wire 64 G rs1_data_id [63:0] $end
$var wire 5 H rs1_addr_id [4:0] $end
$var wire 1 I reg_write_en_ex $end
$var wire 5 J rd_addr_mem [4:0] $end
$var wire 5 K rd_addr_ex [4:0] $end
$var wire 64 L pc_if [63:0] $end
$var wire 64 M pc_id [63:0] $end
$var wire 64 N pc_ex [63:0] $end
$var wire 1 O mispredict $end
$var wire 1 P mem_write_en $end
$var wire 3 Q mem_size [2:0] $end
$var wire 64 R mem_result_mem [63:0] $end
$var wire 1 S mem_read_en $end
$var wire 1 T is_jump $end
$var wire 1 U is_branch $end
$var wire 32 V instr_if [31:0] $end
$var wire 32 W instr_id [31:0] $end
$var wire 64 X instr_addr [63:0] $end
$var wire 2 Y forward_b [1:0] $end
$var wire 2 Z forward_a [1:0] $end
$var wire 1 [ flush_if $end
$var wire 1 \ flush_id $end
$var wire 1 ] flush_ex $end
$var wire 1 ) data_we $end
$var wire 64 ^ data_wdata [63:0] $end
$var wire 8 _ data_be [7:0] $end
$var wire 64 ` data_addr [63:0] $end
$var wire 64 a branch_target [63:0] $end
$var wire 1 b branch_taken $end
$var wire 1 c alu_src2_sel $end
$var wire 1 d alu_src1_sel $end
$var wire 64 e alu_result_ex [63:0] $end
$var wire 4 f alu_op [3:0] $end
$var parameter 32 g ADDR_WIDTH $end
$var parameter 32 h DATA_WIDTH $end
$var parameter 32 i REG_COUNT $end
$scope module u_ex_stage $end
$var wire 1 . clk $end
$var wire 64 j forward_ex [63:0] $end
$var wire 64 k forward_wb [63:0] $end
$var wire 64 l imm_i [63:0] $end
$var wire 1 9 predict_taken_i $end
$var wire 64 m predict_target_i [63:0] $end
$var wire 1 2 rst_n $end
$var wire 2 n wb_sel_i [1:0] $end
$var wire 1 A valid_i $end
$var wire 64 o rs2_data_i [63:0] $end
$var wire 64 p rs1_data_i [63:0] $end
$var wire 1 I reg_write_en_i $end
$var wire 5 q rd_addr_i [4:0] $end
$var wire 64 r pc_i [63:0] $end
$var wire 64 s operand_b [63:0] $end
$var wire 64 t operand_a [63:0] $end
$var wire 1 P mem_write_en_i $end
$var wire 3 u mem_size_i [2:0] $end
$var wire 1 S mem_read_en_i $end
$var wire 1 T is_jump_i $end
$var wire 1 U is_branch_i $end
$var wire 64 v forward_mem [63:0] $end
$var wire 2 w forward_b_sel [1:0] $end
$var wire 2 x forward_a_sel [1:0] $end
$var wire 1 ] flush $end
$var wire 1 y alu_zero $end
$var wire 1 c alu_src2_sel_i $end
$var wire 1 d alu_src1_sel_i $end
$var wire 64 z alu_result [63:0] $end
$var wire 1 { alu_overflow $end
$var wire 4 | alu_op_i [3:0] $end
$var wire 1 } alu_negative $end
$var parameter 32 ~ ADDR_WIDTH $end
$var parameter 32 !" DATA_WIDTH $end
$var reg 64 "" alu_result_o [63:0] $end
$var reg 1 #" branch_taken $end
$var reg 1 b branch_taken_o $end
$var reg 64 $" branch_target [63:0] $end
$var reg 64 %" branch_target_o [63:0] $end
$var reg 1 &" mem_read_en_o $end
$var reg 3 '" mem_size_o [2:0] $end
$var reg 1 (" mem_write_en_o $end
$var reg 1 O mispredict_o $end
$var reg 64 )" pc_o [63:0] $end
$var reg 5 *" rd_addr_o [4:0] $end
$var reg 1 +" reg_write_en_o $end
$var reg 64 ," rs2_data_o [63:0] $end
$var reg 1 B valid_o $end
$var reg 2 -" wb_sel_o [1:0] $end
$scope module u_alu $end
$var wire 64 ." operand_a [63:0] $end
$var wire 64 /" operand_b [63:0] $end
$var wire 64 0" signed_a [63:0] $end
$var wire 64 1" signed_b [63:0] $end
$var wire 64 2" signed_result [63:0] $end
$var wire 1 y zero $end
$var wire 1 { overflow $end
$var wire 1 } negative $end
$var wire 4 3" alu_op [3:0] $end
$var reg 64 4" result [63:0] $end
$upscope $end
$upscope $end
$scope module u_hazard_unit $end
$var wire 1 b branch_taken_ex $end
$var wire 1 . clk $end
$var wire 1 O mispredict_ex $end
$var wire 5 5" rd_addr_ex [4:0] $end
$var wire 5 6" rd_addr_wb [4:0] $end
$var wire 1 7" reg_write_en_mem $end
$var wire 1 < reg_write_en_wb $end
$var wire 1 8" rs1_ex_hazard $end
$var wire 1 9" rs1_mem_hazard $end
$var wire 1 :" rs1_wb_hazard $end
$var wire 1 ;" rs2_ex_hazard $end
$var wire 1 <" rs2_mem_hazard $end
$var wire 1 =" rs2_wb_hazard $end
$var wire 1 2 rst_n $end
$var wire 1 A rs2_used_id $end
$var wire 5 >" rs2_addr_id [4:0] $end
$var wire 1 A rs1_used_id $end
$var wire 5 ?" rs1_addr_id [4:0] $end
$var wire 1 I reg_write_en_ex $end
$var wire 5 @" rd_addr_mem [4:0] $end
$var wire 1 S mem_read_en_ex $end
$var reg 1 ] flush_ex $end
$var reg 1 \ flush_id $end
$var reg 1 [ flush_if $end
$var reg 2 A" forward_a [1:0] $end
$var reg 2 B" forward_b [1:0] $end
$var reg 1 D stall_id $end
$var reg 1 C stall_if $end
$upscope $end
$scope module u_id_stage $end
$var wire 1 . clk $end
$var wire 1 \ flush $end
$var wire 64 C" forward_rs1 [63:0] $end
$var wire 64 D" forward_rs2 [63:0] $end
$var wire 2 E" forward_sel [1:0] $end
$var wire 5 F" rs1_addr_o [4:0] $end
$var wire 5 G" rs2_addr_o [4:0] $end
$var wire 1 2 rst_n $end
$var wire 1 D stall $end
$var wire 1 @ valid_i $end
$var wire 64 H" rs2_data_pre [63:0] $end
$var wire 64 I" rs2_data_i [63:0] $end
$var wire 5 J" rs2_addr [4:0] $end
$var wire 64 K" rs1_data_pre [63:0] $end
$var wire 64 L" rs1_data_i [63:0] $end
$var wire 5 M" rs1_addr [4:0] $end
$var wire 5 N" rd_addr [4:0] $end
$var wire 64 O" pc_i [63:0] $end
$var wire 7 P" opcode [6:0] $end
$var wire 1 Q" is_system $end
$var wire 1 R" is_store $end
$var wire 1 S" is_lui $end
$var wire 1 T" is_load $end
$var wire 1 U" is_jump $end
$var wire 1 V" is_compressed $end
$var wire 1 W" is_branch $end
$var wire 1 X" is_auipc $end
$var wire 1 Y" is_alu_rr $end
$var wire 1 Z" is_alu_imm $end
$var wire 32 [" instr_i [31:0] $end
$var wire 64 \" imm [63:0] $end
$var wire 7 ]" funct7 [6:0] $end
$var wire 3 ^" funct3 [2:0] $end
$var parameter 32 _" ADDR_WIDTH $end
$var parameter 32 `" DATA_WIDTH $end
$var parameter 32 a" REG_ADDR_WIDTH $end
$var reg 4 b" alu_op_o [3:0] $end
$var reg 1 d alu_src1_sel_o $end
$var reg 1 c alu_src2_sel_o $end
$var reg 64 c" imm_o [63:0] $end
$var reg 32 d" instr_o [31:0] $end
$var reg 1 U is_branch_o $end
$var reg 1 T is_jump_o $end
$var reg 1 S mem_read_en_o $end
$var reg 3 e" mem_size_o [2:0] $end
$var reg 1 P mem_write_en_o $end
$var reg 64 f" pc_o [63:0] $end
$var reg 5 g" rd_addr_o [4:0] $end
$var reg 1 I reg_write_en_o $end
$var reg 64 h" rs1_data_o [63:0] $end
$var reg 64 i" rs2_data_o [63:0] $end
$var reg 1 A valid_o $end
$var reg 2 j" wb_sel_o [1:0] $end
$scope module u_decoder $end
$var wire 1 @ valid $end
$var wire 7 k" op [6:0] $end
$var wire 32 l" instr [31:0] $end
$var wire 7 m" f7 [6:0] $end
$var wire 3 n" f3 [2:0] $end
$var reg 3 o" funct3 [2:0] $end
$var reg 7 p" funct7 [6:0] $end
$var reg 64 q" imm [63:0] $end
$var reg 1 Z" is_alu_imm $end
$var reg 1 Y" is_alu_rr $end
$var reg 1 X" is_auipc $end
$var reg 1 W" is_branch $end
$var reg 1 V" is_compressed $end
$var reg 1 U" is_jump $end
$var reg 1 T" is_load $end
$var reg 1 S" is_lui $end
$var reg 1 R" is_store $end
$var reg 1 Q" is_system $end
$var reg 7 r" opcode [6:0] $end
$var reg 5 s" rd_addr [4:0] $end
$var reg 5 t" rs1_addr [4:0] $end
$var reg 5 u" rs2_addr [4:0] $end
$upscope $end
$upscope $end
$scope module u_if_stage $end
$var wire 1 b branch_taken $end
$var wire 64 v" branch_target [63:0] $end
$var wire 1 . clk $end
$var wire 1 [ flush $end
$var wire 64 w" instr_addr [63:0] $end
$var wire 32 x" instr_data [31:0] $end
$var wire 1 & instr_gnt $end
$var wire 1 ' instr_req $end
$var wire 1 O mispredict $end
$var wire 1 2 rst_n $end
$var wire 1 C stall $end
$var wire 1 y" predict_taken $end
$var wire 64 z" predict_pc [63:0] $end
$var wire 64 {" next_pc [63:0] $end
$var wire 1 |" btb_valid $end
$var wire 64 }" btb_target [63:0] $end
$var wire 1 ~" btb_hit $end
$var wire 1 !# bht_taken $end
$var wire 2 "# bht_counter [1:0] $end
$var parameter 32 ## ADDR_WIDTH $end
$var parameter 32 $# DATA_WIDTH $end
$var reg 8 %# ghr [7:0] $end
$var reg 32 &# if_instr [31:0] $end
$var reg 64 '# if_pc [63:0] $end
$var reg 1 (# if_valid $end
$var reg 32 )# instr_out [31:0] $end
$var reg 64 *# pc_out [63:0] $end
$var reg 64 +# pc_reg [63:0] $end
$var reg 1 @ valid_out $end
$scope module u_bht $end
$var wire 1 . clk $end
$var wire 2 ,# counter [1:0] $end
$var wire 8 -# ghr [7:0] $end
$var wire 8 .# index [7:0] $end
$var wire 64 /# pc [63:0] $end
$var wire 1 0# read_en $end
$var wire 1 2 rst_n $end
$var wire 8 1# upd_idx [7:0] $end
$var wire 1 O update_en $end
$var wire 64 2# update_pc [63:0] $end
$var wire 1 b update_taken $end
$var wire 1 !# taken $end
$var integer 32 3# i [31:0] $end
$upscope $end
$scope module u_btb $end
$var wire 1 . clk $end
$var wire 64 4# pc [63:0] $end
$var wire 1 5# read_en $end
$var wire 1 2 rst_n $end
$var wire 1 O update_en $end
$var wire 64 6# update_pc [63:0] $end
$var wire 64 7# update_target [63:0] $end
$var wire 20 8# upd_tag [19:0] $end
$var wire 6 9# upd_idx [5:0] $end
$var wire 20 :# tag [19:0] $end
$var wire 6 ;# index [5:0] $end
$var parameter 32 <# SET_NUM $end
$var parameter 32 =# WAY_NUM $end
$var reg 1 ># found $end
$var reg 1 ~" hit $end
$var reg 64 ?# hit_target [63:0] $end
$var reg 1 @# hit_valid $end
$var reg 2 A# match_way [1:0] $end
$var reg 64 B# target [63:0] $end
$var reg 1 |" valid $end
$var integer 32 C# i [31:0] $end
$var integer 32 D# j [31:0] $end
$var integer 32 E# k [31:0] $end
$var integer 32 F# m [31:0] $end
$upscope $end
$upscope $end
$scope module u_mem_stage $end
$var wire 64 G# alu_result_i [63:0] $end
$var wire 1 . clk $end
$var wire 64 H# mem_addr [63:0] $end
$var wire 1 ! mem_gnt $end
$var wire 64 I# mem_rdata [63:0] $end
$var wire 1 S mem_read_en_i $end
$var wire 3 J# mem_size_i [2:0] $end
$var wire 1 ) mem_we $end
$var wire 1 P mem_write_en_i $end
$var wire 64 K# pc_i [63:0] $end
$var wire 5 L# rd_addr_i [4:0] $end
$var wire 1 I reg_write_en_i $end
$var wire 64 M# rs2_data_i [63:0] $end
$var wire 1 2 rst_n $end
$var wire 3 N# size [2:0] $end
$var wire 1 B valid_i $end
$var wire 2 O# wb_sel_i [1:0] $end
$var wire 64 P# mem_wdata [63:0] $end
$var wire 8 Q# mem_be [7:0] $end
$var wire 64 R# load_data [63:0] $end
$var parameter 32 S# ADDR_WIDTH $end
$var parameter 32 T# DATA_WIDTH $end
$var reg 64 U# alu_result_o [63:0] $end
$var reg 64 V# mem_data_reg [63:0] $end
$var reg 1 W# mem_done $end
$var reg 64 X# mem_result_o [63:0] $end
$var reg 5 Y# rd_addr_o [4:0] $end
$var reg 1 Z# reg_write_en_o $end
$var reg 1 ? valid_o $end
$var reg 2 [# wb_sel_o [1:0] $end
$upscope $end
$scope module u_register_file $end
$var wire 1 . clk $end
$var wire 5 \# raddr1 [4:0] $end
$var wire 5 ]# raddr2 [4:0] $end
$var wire 1 2 rst_n $end
$var wire 5 ^# waddr [4:0] $end
$var wire 64 _# wdata [63:0] $end
$var wire 1 < we $end
$var wire 64 `# rdata2 [63:0] $end
$var wire 64 a# rdata1 [63:0] $end
$var parameter 32 b# ADDR_WIDTH $end
$var parameter 32 c# DATA_WIDTH $end
$var parameter 32 d# REG_COUNT $end
$var integer 32 e# i [31:0] $end
$upscope $end
$upscope $end
$upscope $end
$enddefinitions $end
$comment Show the parameter values. $end
$dumpall
b100000 d#
b1000000 c#
b101 b#
b1000000 T#
b1000000 S#
b100 =#
b10000 <#
b100000 $#
b1000000 ##
b101 a"
b1000000 `"
b1000000 _"
b1000000 !"
b1000000 ~
b100000 i
b1000000 h
b1000000 g
$end
#0
$dumpvars
b100000 e#
b0 a#
b0 `#
b0 _#
b0 ^#
b0 ]#
b0 \#
b0 [#
0Z#
b0 Y#
b0 X#
0W#
b0 V#
b0 U#
bx R#
b1 Q#
b0 P#
b0 O#
b0 N#
b0 M#
b0 L#
b0 K#
b0 J#
bx I#
b0 H#
b0 G#
b100 F#
bx E#
b10000 D#
b100 C#
b0 B#
bx A#
0@#
b0 ?#
x>#
b0 ;#
b1 :#
b0 9#
b1 8#
b0 7#
b1000000000000 6#
15#
b1000000000000 4#
b100000000 3#
b1000000000000 2#
b0 1#
10#
b1000000000000 /#
b0 .#
b0 -#
b1 ,#
b1000000000000 +#
bx *#
bx )#
0(#
bx '#
bx &#
b0 %#
b1 "#
0!#
0~"
b0 }"
0|"
b1000000000100 {"
b1000000000100 z"
0y"
bx x"
b1000000000000 w"
b0 v"
b0 u"
b0 t"
b0 s"
b0 r"
b0 q"
b0 p"
b0 o"
bx n"
bx m"
bx l"
bx k"
b0 j"
b0 i"
b0 h"
b0 g"
b0 f"
b0 e"
b0 d"
b0 c"
b0 b"
b0 ^"
b0 ]"
b0 \"
bx ["
0Z"
0Y"
0X"
0W"
0V"
0U"
0T"
0S"
0R"
0Q"
b0 P"
bx O"
b0 N"
b0 M"
b0 L"
b0 K"
b0 J"
b0 I"
b0 H"
b0 G"
b0 F"
b0 E"
b0 D"
b0 C"
b0 B"
b0 A"
b0 @"
b0 ?"
b0 >"
0="
0<"
0;"
0:"
09"
08"
07"
b0 6"
b0 5"
b0 4"
b0 3"
b0 2"
b0 1"
b0 0"
b0 /"
b0 ."
b0 -"
b0 ,"
0+"
b0 *"
b0 )"
0("
b0 '"
0&"
b0 %"
b100 $"
0#"
b0 ""
0}
b0 |
0{
b0 z
1y
b0 x
b0 w
b0 v
b0 u
b0 t
b0 s
b0 r
b0 q
b0 p
b0 o
b0 n
bz m
b0 l
b0 k
b0 j
b0 f
b0 e
0d
0c
0b
b0 a
b0 `
b1 _
b0 ^
0]
0\
0[
b0 Z
b0 Y
b1000000000000 X
b0 W
bx V
0U
0T
0S
b0 R
b0 Q
0P
0O
b0 N
b0 M
bx L
b0 K
b0 J
0I
b0 H
b0 G
b0 F
b0 E
0D
0C
0B
0A
0@
0?
b0 >
b0 =
0<
b0 ;
bz :
z9
bx 8
b0 7
b0 6
b0 5
04
bx 3
02
01
00
0/
0.
b0 -
b1 ,
0+
b0 *
0)
b1000000000000 (
1'
1&
bx %
1$
0#
bx "
0!
$end
#5
b100000000 3#
b10000 D#
b100 C#
b100000 e#
1.
#10
0.
#15
b100000 e#
b10000 D#
b100 C#
b100000000 3#
1.
#20
0.
#25
b100000000 3#
b10000 D#
b100 C#
b100000 e#
1.
#30
0.
#35
b100000 e#
b10000 D#
b100 C#
b100000000 3#
1.
#40
0.
#45
b100000000 3#
b10000 D#
b100 C#
b100000 e#
1.
#50
0.
#55
b100000 e#
b10000 D#
b100 C#
b100000000 3#
1.
#60
0.
#65
b100000000 3#
b10000 D#
b100 C#
b100000 e#
1.
#70
0.
#75
b100000 e#
b10000 D#
b100 C#
b100000000 3#
1.
#80
0.
#85
b100000000 3#
b10000 D#
b100 C#
b100000 e#
1.
#90
0.
#95
b100000 e#
b10000 D#
b100 C#
b100000000 3#
1.
#100
0.
12
#105
b1000000000100 $"
b1000000001000 {"
b1 .#
b1 1#
b100 F#
bx ]"
bx p"
bx ^"
bx o"
b0 P"
b0 r"
1A
bx W
bx d"
b1000000000000 M
b1000000000000 r
b1000000000000 f"
b1000000001000 z"
b1 ;#
b1 9#
1@
b1000000000000 L
b1000000000000 O"
b1000000000000 *#
b1000000000000 '#
1(#
b1000000000100 (
b1000000000100 X
b1000000000100 w"
b1000000000100 +#
b1000000000100 /#
b1000000000100 2#
b1000000000100 4#
b1000000000100 6#
1.
#110
0.
#115
b1000000001000 $"
b1000000001100 {"
b10 .#
b10 1#
b100 F#
b1000000000100 M
b1000000000100 r
b1000000000100 f"
b1000000001100 z"
b10 ;#
b10 9#
b1000000000100 L
b1000000000100 O"
b1000000000100 *#
b1000000000100 '#
b1000000001000 (
b1000000001000 X
b1000000001000 w"
b1000000001000 +#
b1000000001000 /#
b1000000001000 2#
b1000000001000 4#
b1000000001000 6#
b1000000000100 a
b1000000000100 %"
b1000000000100 v"
b1000000000100 7#
1B
b1000000000000 N
b1000000000000 )"
b1000000000000 K#
1.
#120
0.
#125
b1000000001100 $"
b1000000010000 {"
b11 .#
b11 1#
b100 F#
b1000000001000 M
b1000000001000 r
b1000000001000 f"
b1000000010000 z"
b11 ;#
b11 9#
b1000000001000 L
b1000000001000 O"
b1000000001000 *#
1?
b1000000001000 a
b1000000001000 %"
b1000000001000 v"
b1000000001000 7#
b1000000000100 N
b1000000000100 )"
b1000000000100 K#
b1000000001000 '#
b1000000001100 (
b1000000001100 X
b1000000001100 w"
b1000000001100 +#
b1000000001100 /#
b1000000001100 2#
b1000000001100 4#
b1000000001100 6#
1.
#130
0.
#135
b1000000010000 $"
b1000000010100 {"
b100 .#
b100 1#
b100 F#
b1000000001100 M
b1000000001100 r
b1000000001100 f"
b1000000010100 z"
b100 ;#
b100 9#
b1000000001100 L
b1000000001100 O"
b1000000001100 *#
b1000000001100 '#
b1000000010000 (
b1000000010000 X
b1000000010000 w"
b1000000010000 +#
b1000000010000 /#
b1000000010000 2#
b1000000010000 4#
b1000000010000 6#
b1000000001100 a
b1000000001100 %"
b1000000001100 v"
b1000000001100 7#
b1000000001000 N
b1000000001000 )"
b1000000001000 K#
1.
#140
0.
#145
b1000000010100 $"
b1000000011000 {"
b101 .#
b101 1#
b100 F#
b1000000010000 M
b1000000010000 r
b1000000010000 f"
b1000000011000 z"
b101 ;#
b101 9#
b1000000010000 L
b1000000010000 O"
b1000000010000 *#
b1000000010000 a
b1000000010000 %"
b1000000010000 v"
b1000000010000 7#
b1000000001100 N
b1000000001100 )"
b1000000001100 K#
b1000000010000 '#
b1000000010100 (
b1000000010100 X
b1000000010100 w"
b1000000010100 +#
b1000000010100 /#
b1000000010100 2#
b1000000010100 4#
b1000000010100 6#
1.
#150
0.
#155
b1000000011000 $"
b1000000011100 {"
b110 .#
b110 1#
b100 F#
b1000000010100 M
b1000000010100 r
b1000000010100 f"
b1000000011100 z"
b110 ;#
b110 9#
b1000000010100 L
b1000000010100 O"
b1000000010100 *#
b1000000010100 '#
b1000000011000 (
b1000000011000 X
b1000000011000 w"
b1000000011000 +#
b1000000011000 /#
b1000000011000 2#
b1000000011000 4#
b1000000011000 6#
b1000000010100 a
b1000000010100 %"
b1000000010100 v"
b1000000010100 7#
b1000000010000 N
b1000000010000 )"
b1000000010000 K#
1.
#160
0.
#165
b1000000011100 $"
b1000000100000 {"
b111 .#
b111 1#
b100 F#
b1000000011000 M
b1000000011000 r
b1000000011000 f"
b1000000100000 z"
b111 ;#
b111 9#
b1000000011000 L
b1000000011000 O"
b1000000011000 *#
b1000000011000 a
b1000000011000 %"
b1000000011000 v"
b1000000011000 7#
b1000000010100 N
b1000000010100 )"
b1000000010100 K#
b1000000011000 '#
b1000000011100 (
b1000000011100 X
b1000000011100 w"
b1000000011100 +#
b1000000011100 /#
b1000000011100 2#
b1000000011100 4#
b1000000011100 6#
1.
#170
0.
#175
b1000000100000 $"
b1000000100100 {"
b1000 .#
b1000 1#
b100 F#
b1000000011100 M
b1000000011100 r
b1000000011100 f"
b1000000100100 z"
b1000 ;#
b1000 9#
b1000000011100 L
b1000000011100 O"
b1000000011100 *#
b1000000011100 '#
b1000000100000 (
b1000000100000 X
b1000000100000 w"
b1000000100000 +#
b1000000100000 /#
b1000000100000 2#
b1000000100000 4#
b1000000100000 6#
b1000000011100 a
b1000000011100 %"
b1000000011100 v"
b1000000011100 7#
b1000000011000 N
b1000000011000 )"
b1000000011000 K#
1.
#180
0.
#185
b1000000100100 $"
b1000000101000 {"
b1001 .#
b1001 1#
b100 F#
b1000000100000 M
b1000000100000 r
b1000000100000 f"
b1000000101000 z"
b1001 ;#
b1001 9#
b1000000100000 L
b1000000100000 O"
b1000000100000 *#
b1000000100000 a
b1000000100000 %"
b1000000100000 v"
b1000000100000 7#
b1000000011100 N
b1000000011100 )"
b1000000011100 K#
b1000000100000 '#
b1000000100100 (
b1000000100100 X
b1000000100100 w"
b1000000100100 +#
b1000000100100 /#
b1000000100100 2#
b1000000100100 4#
b1000000100100 6#
1.
#190
0.
#195
b1000000101000 $"
b1000000101100 {"
b1010 .#
b1010 1#
b100 F#
b1000000100100 M
b1000000100100 r
b1000000100100 f"
b1000000101100 z"
b1010 ;#
b1010 9#
b1000000100100 L
b1000000100100 O"
b1000000100100 *#
b1000000100100 '#
b1000000101000 (
b1000000101000 X
b1000000101000 w"
b1000000101000 +#
b1000000101000 /#
b1000000101000 2#
b1000000101000 4#
b1000000101000 6#
b1000000100100 a
b1000000100100 %"
b1000000100100 v"
b1000000100100 7#
b1000000100000 N
b1000000100000 )"
b1000000100000 K#
1.
#200
0.
#205
b1000000101100 $"
b1000000110000 {"
b1011 .#
b1011 1#
b100 F#
b1000000101000 M
b1000000101000 r
b1000000101000 f"
b1000000110000 z"
b1011 ;#
b1011 9#
b1000000101000 L
b1000000101000 O"
b1000000101000 *#
b1000000101000 a
b1000000101000 %"
b1000000101000 v"
b1000000101000 7#
b1000000100100 N
b1000000100100 )"
b1000000100100 K#
b1000000101000 '#
b1000000101100 (
b1000000101100 X
b1000000101100 w"
b1000000101100 +#
b1000000101100 /#
b1000000101100 2#
b1000000101100 4#
b1000000101100 6#
1.
#210
0.
#215
b1000000110000 $"
b1000000110100 {"
b1100 .#
b1100 1#
b100 F#
b1000000101100 M
b1000000101100 r
b1000000101100 f"
b1000000110100 z"
b1100 ;#
b1100 9#
b1000000101100 L
b1000000101100 O"
b1000000101100 *#
b1000000101100 '#
b1000000110000 (
b1000000110000 X
b1000000110000 w"
b1000000110000 +#
b1000000110000 /#
b1000000110000 2#
b1000000110000 4#
b1000000110000 6#
b1000000101100 a
b1000000101100 %"
b1000000101100 v"
b1000000101100 7#
b1000000101000 N
b1000000101000 )"
b1000000101000 K#
1.
#220
0.
#225
b1000000110100 $"
b1000000111000 {"
b1101 .#
b1101 1#
b100 F#
b1000000110000 M
b1000000110000 r
b1000000110000 f"
b1000000111000 z"
b1101 ;#
b1101 9#
b1000000110000 L
b1000000110000 O"
b1000000110000 *#
b1000000110000 a
b1000000110000 %"
b1000000110000 v"
b1000000110000 7#
b1000000101100 N
b1000000101100 )"
b1000000101100 K#
b1000000110000 '#
b1000000110100 (
b1000000110100 X
b1000000110100 w"
b1000000110100 +#
b1000000110100 /#
b1000000110100 2#
b1000000110100 4#
b1000000110100 6#
1.
#230
0.
#235
b1000000111000 $"
b1000000111100 {"
b1110 .#
b1110 1#
b100 F#
b1000000110100 M
b1000000110100 r
b1000000110100 f"
b1000000111100 z"
b1110 ;#
b1110 9#
b1000000110100 L
b1000000110100 O"
b1000000110100 *#
b1000000110100 '#
b1000000111000 (
b1000000111000 X
b1000000111000 w"
b1000000111000 +#
b1000000111000 /#
b1000000111000 2#
b1000000111000 4#
b1000000111000 6#
b1000000110100 a
b1000000110100 %"
b1000000110100 v"
b1000000110100 7#
b1000000110000 N
b1000000110000 )"
b1000000110000 K#
1.
#240
0.
#245
b1000000111100 $"
b1000001000000 {"
b1111 .#
b1111 1#
b100 F#
b1000000111000 M
b1000000111000 r
b1000000111000 f"
b1000001000000 z"
b1111 ;#
b1111 9#
b1000000111000 L
b1000000111000 O"
b1000000111000 *#
b1000000111000 a
b1000000111000 %"
b1000000111000 v"
b1000000111000 7#
b1000000110100 N
b1000000110100 )"
b1000000110100 K#
b1000000111000 '#
b1000000111100 (
b1000000111100 X
b1000000111100 w"
b1000000111100 +#
b1000000111100 /#
b1000000111100 2#
b1000000111100 4#
b1000000111100 6#
1.
#250
0.
#255
b1000001000000 $"
b1000001000100 {"
b10000 .#
b10000 1#
b100 F#
b1000000111100 M
b1000000111100 r
b1000000111100 f"
b1000001000100 z"
b10000 ;#
b10000 9#
b1000000111100 L
b1000000111100 O"
b1000000111100 *#
b1000000111100 '#
b1000001000000 (
b1000001000000 X
b1000001000000 w"
b1000001000000 +#
b1000001000000 /#
b1000001000000 2#
b1000001000000 4#
b1000001000000 6#
b1000000111100 a
b1000000111100 %"
b1000000111100 v"
b1000000111100 7#
b1000000111000 N
b1000000111000 )"
b1000000111000 K#
1.
#260
0.
#265
b1000001000100 $"
b1000001001000 {"
b10001 .#
b10001 1#
b100 F#
b1000001000000 M
b1000001000000 r
b1000001000000 f"
b1000001001000 z"
b10001 ;#
b10001 9#
b1000001000000 L
b1000001000000 O"
b1000001000000 *#
b1000001000000 a
b1000001000000 %"
b1000001000000 v"
b1000001000000 7#
b1000000111100 N
b1000000111100 )"
b1000000111100 K#
b1000001000000 '#
b1000001000100 (
b1000001000100 X
b1000001000100 w"
b1000001000100 +#
b1000001000100 /#
b1000001000100 2#
b1000001000100 4#
b1000001000100 6#
1.
#270
0.
#275
b1000001001000 $"
b1000001001100 {"
b10010 .#
b10010 1#
b100 F#
b1000001000100 M
b1000001000100 r
b1000001000100 f"
b1000001001100 z"
b10010 ;#
b10010 9#
b1000001000100 L
b1000001000100 O"
b1000001000100 *#
b1000001000100 '#
b1000001001000 (
b1000001001000 X
b1000001001000 w"
b1000001001000 +#
b1000001001000 /#
b1000001001000 2#
b1000001001000 4#
b1000001001000 6#
b1000001000100 a
b1000001000100 %"
b1000001000100 v"
b1000001000100 7#
b1000001000000 N
b1000001000000 )"
b1000001000000 K#
1.
#280
0.
#285
b1000001001100 $"
b1000001010000 {"
b10011 .#
b10011 1#
b100 F#
b1000001001000 M
b1000001001000 r
b1000001001000 f"
b1000001010000 z"
b10011 ;#
b10011 9#
b1000001001000 L
b1000001001000 O"
b1000001001000 *#
b1000001001000 a
b1000001001000 %"
b1000001001000 v"
b1000001001000 7#
b1000001000100 N
b1000001000100 )"
b1000001000100 K#
b1000001001000 '#
b1000001001100 (
b1000001001100 X
b1000001001100 w"
b1000001001100 +#
b1000001001100 /#
b1000001001100 2#
b1000001001100 4#
b1000001001100 6#
1.
#290
0.
#295
b1000001010000 $"
b1000001010100 {"
b10100 .#
b10100 1#
b100 F#
b1000001001100 M
b1000001001100 r
b1000001001100 f"
b1000001010100 z"
b10100 ;#
b10100 9#
b1000001001100 L
b1000001001100 O"
b1000001001100 *#
b1000001001100 '#
b1000001010000 (
b1000001010000 X
b1000001010000 w"
b1000001010000 +#
b1000001010000 /#
b1000001010000 2#
b1000001010000 4#
b1000001010000 6#
b1000001001100 a
b1000001001100 %"
b1000001001100 v"
b1000001001100 7#
b1000001001000 N
b1000001001000 )"
b1000001001000 K#
1.
#300
0.
